{
  "images" : [
    {
      "resizing" : {
        "mode" : "9-part",
        "center" : {
          "mode" : "tile",
          "width" : 1,
          "height" : 1
        },
        "cap-insets" : {
          "bottom" : 22,
          "top" : 6,
          "right" : 9,
          "left" : 16
        }
      },
      "idiom" : "universal",
      "filename" : "popout_bg_right.png",
      "scale" : "1x"
    },
    {
      "resizing" : {
        "mode" : "9-part",
        "center" : {
          "mode" : "tile",
          "width" : 1,
          "height" : 1
        },
        "cap-insets" : {
          "bottom" : 46,
          "top" : 11,
          "right" : 18,
          "left" : 33
        }
      },
      "idiom" : "universal",
      "filename" : "popout_bg_right@2x.png",
      "scale" : "2x"
    },
    {
      "resizing" : {
        "mode" : "9-part",
        "center" : {
          "mode" : "tile",
          "width" : 1,
          "height" : 1
        },
        "cap-insets" : {
          "bottom" : 70,
          "top" : 16,
          "right" : 26,
          "left" : 51
        }
      },
      "idiom" : "universal",
      "filename" : "popout_bg_right@3x.png",
      "scale" : "3x"
    }
  ],
  "info" : {
    "version" : 1,
    "author" : "xcode"
  }
}