{
  "images" : [
    {
      "resizing" : {
        "mode" : "9-part",
        "center" : {
          "mode" : "tile",
          "width" : 1,
          "height" : 1
        },
        "cap-insets" : {
          "bottom" : 22,
          "top" : 6,
          "right" : 17,
          "left" : 8
        }
      },
      "idiom" : "universal",
      "filename" : "popout_bg_left.png",
      "scale" : "1x"
    },
    {
      "resizing" : {
        "mode" : "9-part",
        "center" : {
          "mode" : "tile",
          "width" : 1,
          "height" : 1
        },
        "cap-insets" : {
          "bottom" : 47,
          "top" : 10,
          "right" : 31,
          "left" : 19
        }
      },
      "idiom" : "universal",
      "filename" : "popout_bg_left@2x.png",
      "scale" : "2x"
    },
    {
      "resizing" : {
        "mode" : "9-part",
        "center" : {
          "mode" : "tile",
          "width" : 1,
          "height" : 1
        },
        "cap-insets" : {
          "bottom" : 69,
          "top" : 17,
          "right" : 47,
          "left" : 30
        }
      },
      "idiom" : "universal",
      "filename" : "popout_bg_left@3x.png",
      "scale" : "3x"
    }
  ],
  "info" : {
    "version" : 1,
    "author" : "xcode"
  }
}